{
	"images": true,
	"colminitems": 5,
	"truncate": 48,
	"domain": "http://localhost:8081/",
	"subdir": "",
	"fullImage": "https://gitlab.com/to-your-rude-health/to-your-rude-health-data/-/raw/master/src/images/",
	"abs_url": false
}
